# compile vhdl design source files
vhdl xil_defaultlib  \
"../../../../../Trabajo VHDL  final/Maquina_refrescos/Maquina_refrescos.srcs/sources_1/new/BCD_to_display.vhd" \
"../../../../../Trabajo VHDL  final/Maquina_refrescos/Maquina_refrescos.srcs/sim_2/new/BCD_to_display_tb.vhd" \

# Do not sort compile order
nosort
